{
  "author": "Mikey",
  "first_name": "Mikey",
  "handle": "mikey100",
  "public_url": "",
  "output_directory": "public",
  "site_title": "Mikey\u0027s Site",
  "site_desc": "Mikey100\u0027s personal website",
  "thumb_width": "600",
  "thumb_height": "300",
  "post_template": "new_post.html",
  "file_jobs": [
    {
      "template": "mikey.html",
      "target": "index.html"
    }
  ]
}
